Salmonid Mortality Analysis: TidyTuesday
…
# Convert wide columns (dead, discarded, escaped, other)
# into a long tidy format: loss_type, count.
loss_long <- monthly_losses_data |>
  mutate(date = as.Date(date)) |>
  select(species, date, geo_group, region, losses, dead, discarded, escaped, other) |>
  pivot_longer(
    cols = c(dead, discarded, escaped, other),
    names_to = "loss_type",
    values_to = "count"
  ) |>
  mutate(share = count / losses)   # compute proportion of total loss

loss_long

# A tibble: 11,232 × 8
   species date       geo_group region losses loss_type  count    share
   <chr>   <date>     <chr>     <chr>   <dbl> <chr>      <dbl>    <dbl>
 1 salmon  2020-01-01 area      1       31425 dead       28126 0.895   
 2 salmon  2020-01-01 area      1       31425 discarded   3299 0.105   
 3 salmon  2020-01-01 area      1       31425 escaped        0 0       
 4 salmon  2020-01-01 area      1       31425 other          0 0       
 5 salmon  2020-01-01 area      2      324116 dead      277888 0.857   
 6 salmon  2020-01-01 area      2      324116 discarded  46113 0.142   
 7 salmon  2020-01-01 area      2      324116 escaped        0 0       
 8 salmon  2020-01-01 area      2      324116 other        115 0.000355
 9 salmon  2020-01-01 area      3      844829 dead      776983 0.920   
10 salmon  2020-01-01 area      3      844829 discarded  63770 0.0755  
# ℹ 11,222 more rows
…
